{"tracks": {"href": "https://api.spotify.com/v1/search?query=Anytime&type=track&offset=0&limit=5", "items": [{"album": {"album_type": "album", "artists": [{"external_urls": {"spotify": "https://open.spotify.com/artist/6k0IBR0lU42s2GYpNX7kA9"}, "href": "https://api.spotify.com/v1/artists/6k0IBR0lU42s2GYpNX7kA9", "id": "6k0IBR0lU42s2GYpNX7kA9", "name": "Brian McKnight", "type": "artist", "uri": "spotify:artist:6k0IBR0lU42s2GYpNX7kA9"}], "available_markets": ["CA", "MX", "US"], "external_urls": {"spotify": "https://open.spotify.com/album/7qxIzUF6FoGTu62oeRdNFd"}, "href": "https://api.spotify.com/v1/albums/7qxIzUF6FoGTu62oeRdNFd", "id": "7qxIzUF6FoGTu62oeRdNFd", "images": [{"height": 640, "url": "https://i.scdn.co/image/ab67616d0000b2733a10aaf63f53e76276bb3c80", "width": 640}, {"height": 300, "url": "https://i.scdn.co/image/ab67616d00001e023a10aaf63f53e76276bb3c80", "width": 300}, {"height": 64, "url": "https://i.scdn.co/image/ab67616d000048513a10aaf63f53e76276bb3c80", "width": 64}], "name": "Anytime", "release_date": "1997-01-01", "release_date_precision": "day", "total_tracks": 12, "type": "album", "uri": "spotify:album:7qxIzUF6FoGTu62oeRdNFd"}, "artists": [{"external_urls": {"spotify": "https://open.spotify.com/artist/6k0IBR0lU42s2GYpNX7kA9"}, "href": "https://api.spotify.com/v1/artists/6k0IBR0lU42s2GYpNX7kA9", "id": "6k0IBR0lU42s2GYpNX7kA9", "name": "Brian McKnight", "type": "artist", "uri": "spotify:artist:6k0IBR0lU42s2GYpNX7kA9"}], "available_markets": ["CA", "MX", "US"], "disc_number": 1, "duration_ms": 273438, "explicit": false, "external_ids": {"isrc": "USMR19787211"}, "external_urls": {"spotify": "https://open.spotify.com/track/2gQ3lDcFYa3yFOkaw8PtuO"}, "href": "https://api.spotify.com/v1/tracks/2gQ3lDcFYa3yFOkaw8PtuO", "id": "2gQ3lDcFYa3yFOkaw8PtuO", "is_local": false, "name": "Anytime", "popularity": 54, "preview_url": null, "track_number": 1, "type": "track", "uri": "spotify:track:2gQ3lDcFYa3yFOkaw8PtuO"}, {"album": {"album_type": "album", "artists": [{"external_urls": {"spotify": "https://open.spotify.com/artist/6rJqqRce0Kvo2dJUXoHleC"}, "href": "https://api.spotify.com/v1/artists/6rJqqRce0Kvo2dJUXoHleC", "id": "6rJqqRce0Kvo2dJUXoHleC", "name": "Alabama", "type": "artist", "uri": "spotify:artist:6rJqqRce0Kvo2dJUXoHleC"}], "available_markets": ["AD", "AE", "AG", "AL", "AM", "AO", "AR", "AT", "AU", "AZ", "BA", "BB", "BD", "BE", "BF", "BG", "BH", "BI", "BJ", "BN", "BO", "BR", "BS", "BT", "BW", "BY", "BZ", "CA", "CD", "CG", "CH", "CI", "CL", "CM", "CO", "CR", "CV", "CW", "CY", "CZ", "DE", "DJ", "DK", "DM", "DO", "DZ", "EC", "EE", "EG", "ES", "FI", "FJ", "FM", "FR", "GA", "GB", "GD", "GE", "GH", "GM", "GN", "GQ", "GR", "GT", "GW", "GY", "HK", "HN", "HR", "HT", "HU", "ID", "IE", "IL", "IN", "IQ", "IS", "IT", "JM", "JO", "JP", "KE", "KG", "KH", "KI", "KM", "KN", "KR", "KW", "KZ", "LA", "LB", "LC", "LI", "LK", "LR", "LS", "LT", "LU", "LV", "LY", "MA", "MC", "MD", "ME", "MG", "MH", "MK", "ML", "MN", "MO", "MR", "MT", "MU", "MV", "MW", "MX", "MY", "MZ", "NA", "NE", "NG", "NI", "NL", "NO", "NP", "NR", "NZ", "OM", "PA", "PE", "PG", "PH", "PK", "PL", "PS", "PT", "PW", "PY", "QA", "RO", "RS", "RU", "RW", "SA", "SB", "SC", "SE", "SG", "SI", "SK", "SL", "SM", "SN", "SR", "ST", "SV", "SZ", "TD", "TG", "TH", "TJ", "TL", "TN", "TO", "TR", "TT", "TV", "TW", "TZ", "UA", "UG", "US", "UY", "UZ", "VC", "VE", "VN", "VU", "WS", "XK", "ZA", "ZM", "ZW"], "external_urls": {"spotify": "https://open.spotify.com/album/5eFin2KdsXEYNrbdLE02wG"}, "href": "https://api.spotify.com/v1/albums/5eFin2KdsXEYNrbdLE02wG", "id": "5eFin2KdsXEYNrbdLE02wG", "images": [{"height": 640, "url": "https://i.scdn.co/image/ab67616d0000b2734243c388183e723ed289f3e9", "width": 640}, {"height": 300, "url": "https://i.scdn.co/image/ab67616d00001e024243c388183e723ed289f3e9", "width": 300}, {"height": 64, "url": "https://i.scdn.co/image/ab67616d000048514243c388183e723ed289f3e9", "width": 64}], "name": "Dancin' On The Boulevard", "release_date": "1997", "release_date_precision": "year", "total_tracks": 11, "type": "album", "uri": "spotify:album:5eFin2KdsXEYNrbdLE02wG"}, "artists": [{"external_urls": {"spotify": "https://open.spotify.com/artist/6rJqqRce0Kvo2dJUXoHleC"}, "href": "https://api.spotify.com/v1/artists/6rJqqRce0Kvo2dJUXoHleC", "id": "6rJqqRce0Kvo2dJUXoHleC", "name": "Alabama", "type": "artist", "uri": "spotify:artist:6rJqqRce0Kvo2dJUXoHleC"}], "available_markets": ["AD", "AE", "AG", "AL", "AM", "AO", "AR", "AT", "AU", "AZ", "BA", "BB", "BD", "BE", "BF", "BG", "BH", "BI", "BJ", "BN", "BO", "BR", "BS", "BT", "BW", "BY", "BZ", "CA", "CD", "CG", "CH", "CI", "CL", "CM", "CO", "CR", "CV", "CW", "CY", "CZ", "DE", "DJ", "DK", "DM", "DO", "DZ", "EC", "EE", "EG", "ES", "FI", "FJ", "FM", "FR", "GA", "GB", "GD", "GE", "GH", "GM", "GN", "GQ", "GR", "GT", "GW", "GY", "HK", "HN", "HR", "HT", "HU", "ID", "IE", "IL", "IN", "IQ", "IS", "IT", "JM", "JO", "JP", "KE", "KG", "KH", "KI", "KM", "KN", "KR", "KW", "KZ", "LA", "LB", "LC", "LI", "LK", "LR", "LS", "LT", "LU", "LV", "LY", "MA", "MC", "MD", "ME", "MG", "MH", "MK", "ML", "MN", "MO", "MR", "MT", "MU", "MV", "MW", "MX", "MY", "MZ", "NA", "NE", "NG", "NI", "NL", "NO", "NP", "NR", "NZ", "OM", "PA", "PE", "PG", "PH", "PK", "PL", "PS", "PT", "PW", "PY", "QA", "RO", "RS", "RU", "RW", "SA", "SB", "SC", "SE", "SG", "SI", "SK", "SL", "SM", "SN", "SR", "ST", "SV", "SZ", "TD", "TG", "TH", "TJ", "TL", "TN", "TO", "TR", "TT", "TV", "TW", "TZ", "UA", "UG", "US", "UY", "UZ", "VC", "VE", "VN", "VU", "WS", "XK", "ZA", "ZM", "ZW"], "disc_number": 1, "duration_ms": 233373, "explicit": false, "external_ids": {"isrc": "USRN19700003"}, "external_urls": {"spotify": "https://open.spotify.com/track/7151Kh2jwYQZvjhjc8wVgm"}, "href": "https://api.spotify.com/v1/tracks/7151Kh2jwYQZvjhjc8wVgm", "id": "7151Kh2jwYQZvjhjc8wVgm", "is_local": false, "name": "Anytime (I'm Your Man)", "popularity": 5, "preview_url": "https://p.scdn.co/mp3-preview/140e36cf670789afa39d97e7c87e565e63154c14?cid=4bb4bbafa39540db902e05b2e0d60b6a", "track_number": 3, "type": "track", "uri": "spotify:track:7151Kh2jwYQZvjhjc8wVgm"}, {"album": {"album_type": "album", "artists": [{"external_urls": {"spotify": "https://open.spotify.com/artist/4JqpJeNOhP6bAkolNMLwFg"}, "href": "https://api.spotify.com/v1/artists/4JqpJeNOhP6bAkolNMLwFg", "id": "4JqpJeNOhP6bAkolNMLwFg", "name": "Jean Deaux", "type": "artist", "uri": "spotify:artist:4JqpJeNOhP6bAkolNMLwFg"}], "available_markets": ["AD", "AE", "AG", "AL", "AM", "AO", "AR", "AT", "AU", "AZ", "BA", "BB", "BD", "BE", "BF", "BG", "BH", "BI", "BJ", "BN", "BO", "BR", "BS", "BT", "BW", "BY", "BZ", "CA", "CD", "CG", "CH", "CI", "CL", "CM", "CO", "CR", "CV", "CW", "CY", "CZ", "DE", "DJ", "DK", "DM", "DO", "DZ", "EC", "EE", "EG", "ES", "FI", "FJ", "FM", "FR", "GA", "GB", "GD", "GE", "GH", "GM", "GN", "GQ", "GR", "GT", "GW", "GY", "HK", "HN", "HR", "HT", "HU", "ID", "IE", "IL", "IN", "IQ", "IS", "IT", "JM", "JO", "JP", "KE", "KG", "KH", "KI", "KM", "KN", "KR", "KW", "KZ", "LA", "LB", "LC", "LI", "LK", "LR", "LS", "LT", "LU", "LV", "LY", "MA", "MC", "MD", "ME", "MG", "MH", "MK", "ML", "MN", "MO", "MR", "MT", "MU", "MV", "MW", "MX", "MY", "MZ", "NA", "NE", "NG", "NI", "NL", "NO", "NP", "NR", "NZ", "OM", "PA", "PE", "PG", "PH", "PK", "PL", "PS", "PT", "PW", "PY", "QA", "RO", "RS", "RU", "RW", "SA", "SB", "SC", "SE", "SG", "SI", "SK", "SL", "SM", "SN", "SR", "ST", "SV", "SZ", "TD", "TG", "TH", "TJ", "TL", "TN", "TO", "TR", "TT", "TV", "TW", "TZ", "UA", "UG", "US", "UY", "UZ", "VC", "VE", "VN", "VU", "WS", "XK", "ZA", "ZM", "ZW"], "external_urls": {"spotify": "https://open.spotify.com/album/7bVTqWD27L2VhdudJ46Dpm"}, "href": "https://api.spotify.com/v1/albums/7bVTqWD27L2VhdudJ46Dpm", "id": "7bVTqWD27L2VhdudJ46Dpm", "images": [{"height": 640, "url": "https://i.scdn.co/image/ab67616d0000b2733b8bb462224c09aaaf4b5b61", "width": 640}, {"height": 300, "url": "https://i.scdn.co/image/ab67616d00001e023b8bb462224c09aaaf4b5b61", "width": 300}, {"height": 64, "url": "https://i.scdn.co/image/ab67616d000048513b8bb462224c09aaaf4b5b61", "width": 64}], "name": "Empathy", "release_date": "2019-06-14", "release_date_precision": "day", "total_tracks": 7, "type": "album", "uri": "spotify:album:7bVTqWD27L2VhdudJ46Dpm"}, "artists": [{"external_urls": {"spotify": "https://open.spotify.com/artist/4JqpJeNOhP6bAkolNMLwFg"}, "href": "https://api.spotify.com/v1/artists/4JqpJeNOhP6bAkolNMLwFg", "id": "4JqpJeNOhP6bAkolNMLwFg", "name": "Jean Deaux", "type": "artist", "uri": "spotify:artist:4JqpJeNOhP6bAkolNMLwFg"}, {"external_urls": {"spotify": "https://open.spotify.com/artist/0cGUm45nv7Z6M6qdXYQGTX"}, "href": "https://api.spotify.com/v1/artists/0cGUm45nv7Z6M6qdXYQGTX", "id": "0cGUm45nv7Z6M6qdXYQGTX", "name": "Kehlani", "type": "artist", "uri": "spotify:artist:0cGUm45nv7Z6M6qdXYQGTX"}, {"external_urls": {"spotify": "https://open.spotify.com/artist/3Aum3IcJEKuGsWVPBZnvyU"}, "href": "https://api.spotify.com/v1/artists/3Aum3IcJEKuGsWVPBZnvyU", "id": "3Aum3IcJEKuGsWVPBZnvyU", "name": "ROMderful", "type": "artist", "uri": "spotify:artist:3Aum3IcJEKuGsWVPBZnvyU"}], "available_markets": ["AD", "AE", "AG", "AL", "AM", "AO", "AR", "AT", "AU", "AZ", "BA", "BB", "BD", "BE", "BF", "BG", "BH", "BI", "BJ", "BN", "BO", "BR", "BS", "BT", "BW", "BY", "BZ", "CA", "CD", "CG", "CH", "CI", "CL", "CM", "CO", "CR", "CV", "CW", "CY", "CZ", "DE", "DJ", "DK", "DM", "DO", "DZ", "EC", "EE", "EG", "ES", "FI", "FJ", "FM", "FR", "GA", "GB", "GD", "GE", "GH", "GM", "GN", "GQ", "GR", "GT", "GW", "GY", "HK", "HN", "HR", "HT", "HU", "ID", "IE", "IL", "IN", "IQ", "IS", "IT", "JM", "JO", "JP", "KE", "KG", "KH", "KI", "KM", "KN", "KR", "KW", "KZ", "LA", "LB", "LC", "LI", "LK", "LR", "LS", "LT", "LU", "LV", "LY", "MA", "MC", "MD", "ME", "MG", "MH", "MK", "ML", "MN", "MO", "MR", "MT", "MU", "MV", "MW", "MX", "MY", "MZ", "NA", "NE", "NG", "NI", "NL", "NO", "NP", "NR", "NZ", "OM", "PA", "PE", "PG", "PH", "PK", "PL", "PS", "PT", "PW", "PY", "QA", "RO", "RS", "RU", "RW", "SA", "SB", "SC", "SE", "SG", "SI", "SK", "SL", "SM", "SN", "SR", "ST", "SV", "SZ", "TD", "TG", "TH", "TJ", "TL", "TN", "TO", "TR", "TT", "TV", "TW", "TZ", "UA", "UG", "US", "UY", "UZ", "VC", "VE", "VN", "VU", "WS", "XK", "ZA", "ZM", "ZW"], "disc_number": 1, "duration_ms": 256310, "explicit": true, "external_ids": {"isrc": "USUYG1257170"}, "external_urls": {"spotify": "https://open.spotify.com/track/465Yx9rm9mNmzTFlojTIRs"}, "href": "https://api.spotify.com/v1/tracks/465Yx9rm9mNmzTFlojTIRs", "id": "465Yx9rm9mNmzTFlojTIRs", "is_local": false, "name": "Anytime (feat. Kehlani & ROMderful)", "popularity": 55, "preview_url": "https://p.scdn.co/mp3-preview/98dd50f36ae2168faeb55dc16b3d44dc55f7018f?cid=4bb4bbafa39540db902e05b2e0d60b6a", "track_number": 4, "type": "track", "uri": "spotify:track:465Yx9rm9mNmzTFlojTIRs"}, {"album": {"album_type": "album", "artists": [{"external_urls": {"spotify": "https://open.spotify.com/artist/5sy77gt4bfsLcSQ8GIe4ZZ"}, "href": "https://api.spotify.com/v1/artists/5sy77gt4bfsLcSQ8GIe4ZZ", "id": "5sy77gt4bfsLcSQ8GIe4ZZ", "name": "Alan Menken", "type": "artist", "uri": "spotify:artist:5sy77gt4bfsLcSQ8GIe4ZZ"}], "available_markets": ["AD", "AE", "AG", "AL", "AM", "AO", "AR", "AT", "AU", "AZ", "BA", "BB", "BD", "BE", "BF", "BG", "BH", "BI", "BJ", "BN", "BO", "BR", "BS", "BT", "BW", "BY", "BZ", "CA", "CD", "CG", "CH", "CI", "CL", "CM", "CO", "CR", "CV", "CW", "CY", "CZ", "DE", "DJ", "DK", "DM", "DO", "DZ", "EC", "EE", "EG", "ES", "FI", "FJ", "FM", "FR", "GA", "GB", "GD", "GE", "GH", "GM", "GN", "GQ", "GR", "GT", "GW", "GY", "HK", "HN", "HR", "HT", "HU", "ID", "IE", "IL", "IN", "IQ", "IS", "IT", "JM", "JO", "JP", "KE", "KG", "KH", "KI", "KM", "KN", "KR", "KW", "KZ", "LA", "LB", "LC", "LI", "LK", "LR", "LS", "LT", "LU", "LV", "LY", "MA", "MC", "MD", "ME", "MG", "MH", "MK", "ML", "MN", "MO", "MR", "MT", "MU", "MV", "MW", "MX", "MY", "MZ", "NA", "NE", "NG", "NI", "NL", "NO", "NP", "NR", "NZ", "OM", "PA", "PE", "PG", "PH", "PK", "PL", "PS", "PT", "PW", "PY", "QA", "RO", "RS", "RU", "RW", "SA", "SB", "SC", "SE", "SG", "SI", "SK", "SL", "SM", "SN", "SR", "ST", "SV", "SZ", "TD", "TG", "TH", "TJ", "TL", "TN", "TO", "TR", "TT", "TV", "TW", "TZ", "UA", "UG", "US", "UY", "UZ", "VC", "VE", "VN", "VU", "WS", "XK", "ZA", "ZM", "ZW"], "external_urls": {"spotify": "https://open.spotify.com/album/4kLBMYyIYtj1qQTy9Muv7W"}, "href": "https://api.spotify.com/v1/albums/4kLBMYyIYtj1qQTy9Muv7W", "id": "4kLBMYyIYtj1qQTy9Muv7W", "images": [{"height": 640, "url": "https://i.scdn.co/image/ab67616d0000b273acde27c784f8bb47645344d0", "width": 640}, {"height": 300, "url": "https://i.scdn.co/image/ab67616d00001e02acde27c784f8bb47645344d0", "width": 300}, {"height": 64, "url": "https://i.scdn.co/image/ab67616d00004851acde27c784f8bb47645344d0", "width": 64}], "name": "Home On The Range (Original Motion Picture Soundtrack)", "release_date": "2004-01-01", "release_date_precision": "day", "total_tracks": 15, "type": "album", "uri": "spotify:album:4kLBMYyIYtj1qQTy9Muv7W"}, "artists": [{"external_urls": {"spotify": "https://open.spotify.com/artist/6FOKCU0vF1lDo1qIRjvVKi"}, "href": "https://api.spotify.com/v1/artists/6FOKCU0vF1lDo1qIRjvVKi", "id": "6FOKCU0vF1lDo1qIRjvVKi", "name": "The Beu Sisters", "type": "artist", "uri": "spotify:artist:6FOKCU0vF1lDo1qIRjvVKi"}], "available_markets": ["AD", "AE", "AG", "AL", "AM", "AO", "AR", "AT", "AU", "AZ", "BA", "BB", "BD", "BE", "BF", "BG", "BH", "BI", "BJ", "BN", "BO", "BR", "BS", "BT", "BW", "BY", "BZ", "CA", "CD", "CG", "CH", "CI", "CL", "CM", "CO", "CR", "CV", "CW", "CY", "CZ", "DE", "DJ", "DK", "DM", "DO", "DZ", "EC", "EE", "EG", "ES", "FI", "FJ", "FM", "FR", "GA", "GB", "GD", "GE", "GH", "GM", "GN", "GQ", "GR", "GT", "GW", "GY", "HK", "HN", "HR", "HT", "HU", "ID", "IE", "IL", "IN", "IQ", "IS", "IT", "JM", "JO", "JP", "KE", "KG", "KH", "KI", "KM", "KN", "KR", "KW", "KZ", "LA", "LB", "LC", "LI", "LK", "LR", "LS", "LT", "LU", "LV", "LY", "MA", "MC", "MD", "ME", "MG", "MH", "MK", "ML", "MN", "MO", "MR", "MT", "MU", "MV", "MW", "MX", "MY", "MZ", "NA", "NE", "NG", "NI", "NL", "NO", "NP", "NR", "NZ", "OM", "PA", "PE", "PG", "PH", "PK", "PL", "PS", "PT", "PW", "PY", "QA", "RO", "RS", "RU", "RW", "SA", "SB", "SC", "SE", "SG", "SI", "SK", "SL", "SM", "SN", "SR", "ST", "SV", "SZ", "TD", "TG", "TH", "TJ", "TL", "TN", "TO", "TR", "TT", "TV", "TW", "TZ", "UA", "UG", "US", "UY", "UZ", "VC", "VE", "VN", "VU", "WS", "XK", "ZA", "ZM", "ZW"], "disc_number": 1, "duration_ms": 201666, "explicit": false, "external_ids": {"isrc": "USWD10423019"}, "external_urls": {"spotify": "https://open.spotify.com/track/34yENJs021Uby7I3kf2AVM"}, "href": "https://api.spotify.com/v1/tracks/34yENJs021Uby7I3kf2AVM", "id": "34yENJs021Uby7I3kf2AVM", "is_local": false, "name": "Anytime You Need a Friend - Original Version", "popularity": 20, "preview_url": null, "track_number": 7, "type": "track", "uri": "spotify:track:34yENJs021Uby7I3kf2AVM"}, {"album": {"album_type": "album", "artists": [{"external_urls": {"spotify": "https://open.spotify.com/artist/0rvjqX7ttXeg3mTy8Xscbt"}, "href": "https://api.spotify.com/v1/artists/0rvjqX7ttXeg3mTy8Xscbt", "id": "0rvjqX7ttXeg3mTy8Xscbt", "name": "Journey", "type": "artist", "uri": "spotify:artist:0rvjqX7ttXeg3mTy8Xscbt"}], "available_markets": ["AD", "AE", "AG", "AL", "AM", "AO", "AR", "AT", "AU", "AZ", "BA", "BB", "BD", "BE", "BF", "BG", "BH", "BI", "BJ", "BN", "BO", "BR", "BS", "BT", "BW", "BY", "BZ", "CA", "CD", "CG", "CH", "CI", "CL", "CM", "CO", "CR", "CV", "CW", "CY", "CZ", "DE", "DJ", "DK", "DM", "DO", "DZ", "EC", "EE", "EG", "ES", "FI", "FJ", "FM", "FR", "GA", "GB", "GD", "GE", "GH", "GM", "GN", "GQ", "GR", "GT", "GW", "GY", "HK", "HN", "HR", "HT", "HU", "ID", "IE", "IL", "IN", "IQ", "IS", "IT", "JM", "JO", "JP", "KE", "KG", "KH", "KI", "KM", "KN", "KR", "KW", "KZ", "LA", "LB", "LC", "LI", "LK", "LR", "LS", "LT", "LU", "LV", "LY", "MA", "MC", "MD", "ME", "MG", "MH", "MK", "ML", "MN", "MO", "MR", "MT", "MU", "MV", "MW", "MX", "MY", "MZ", "NA", "NE", "NG", "NI", "NL", "NO", "NP", "NR", "NZ", "OM", "PA", "PE", "PG", "PH", "PK", "PL", "PS", "PT", "PW", "PY", "QA", "RO", "RS", "RU", "RW", "SA", "SB", "SC", "SE", "SG", "SI", "SK", "SL", "SM", "SN", "SR", "ST", "SV", "SZ", "TD", "TG", "TH", "TJ", "TL", "TN", "TO", "TR", "TT", "TV", "TW", "TZ", "UA", "UG", "US", "UY", "UZ", "VC", "VE", "VN", "VU", "WS", "XK", "ZA", "ZM", "ZW"], "external_urls": {"spotify": "https://open.spotify.com/album/7K4Nk5fHkCuzNm5A6mdo2U"}, "href": "https://api.spotify.com/v1/albums/7K4Nk5fHkCuzNm5A6mdo2U", "id": "7K4Nk5fHkCuzNm5A6mdo2U", "images": [{"height": 640, "url": "https://i.scdn.co/image/ab67616d0000b2731b2a9188ac775e16998eb78d", "width": 640}, {"height": 300, "url": "https://i.scdn.co/image/ab67616d00001e021b2a9188ac775e16998eb78d", "width": 300}, {"height": 64, "url": "https://i.scdn.co/image/ab67616d000048511b2a9188ac775e16998eb78d", "width": 64}], "name": "Infinity", "release_date": "1978", "release_date_precision": "year", "total_tracks": 10, "type": "album", "uri": "spotify:album:7K4Nk5fHkCuzNm5A6mdo2U"}, "artists": [{"external_urls": {"spotify": "https://open.spotify.com/artist/0rvjqX7ttXeg3mTy8Xscbt"}, "href": "https://api.spotify.com/v1/artists/0rvjqX7ttXeg3mTy8Xscbt", "id": "0rvjqX7ttXeg3mTy8Xscbt", "name": "Journey", "type": "artist", "uri": "spotify:artist:0rvjqX7ttXeg3mTy8Xscbt"}], "available_markets": ["AD", "AE", "AG", "AL", "AM", "AO", "AR", "AT", "AU", "AZ", "BA", "BB", "BD", "BE", "BF", "BG", "BH", "BI", "BJ", "BN", "BO", "BR", "BS", "BT", "BW", "BY", "BZ", "CA", "CD", "CG", "CH", "CI", "CL", "CM", "CO", "CR", "CV", "CW", "CY", "CZ", "DE", "DJ", "DK", "DM", "DO", "DZ", "EC", "EE", "EG", "ES", "FI", "FJ", "FM", "FR", "GA", "GB", "GD", "GE", "GH", "GM", "GN", "GQ", "GR", "GT", "GW", "GY", "HK", "HN", "HR", "HT", "HU", "ID", "IE", "IL", "IN", "IQ", "IS", "IT", "JM", "JO", "JP", "KE", "KG", "KH", "KI", "KM", "KN", "KR", "KW", "KZ", "LA", "LB", "LC", "LI", "LK", "LR", "LS", "LT", "LU", "LV", "LY", "MA", "MC", "MD", "ME", "MG", "MH", "MK", "ML", "MN", "MO", "MR", "MT", "MU", "MV", "MW", "MX", "MY", "MZ", "NA", "NE", "NG", "NI", "NL", "NO", "NP", "NR", "NZ", "OM", "PA", "PE", "PG", "PH", "PK", "PL", "PS", "PT", "PW", "PY", "QA", "RO", "RS", "RU", "RW", "SA", "SB", "SC", "SE", "SG", "SI", "SK", "SL", "SM", "SN", "SR", "ST", "SV", "SZ", "TD", "TG", "TH", "TJ", "TL", "TN", "TO", "TR", "TT", "TV", "TW", "TZ", "UA", "UG", "US", "UY", "UZ", "VC", "VE", "VN", "VU", "WS", "XK", "ZA", "ZM", "ZW"], "disc_number": 1, "duration_ms": 208466, "explicit": false, "external_ids": {"isrc": "USSM17800106"}, "external_urls": {"spotify": "https://open.spotify.com/track/2dcskJYRu9mMVPpAGJl3Er"}, "href": "https://api.spotify.com/v1/tracks/2dcskJYRu9mMVPpAGJl3Er", "id": "2dcskJYRu9mMVPpAGJl3Er", "is_local": false, "name": "Anytime", "popularity": 48, "preview_url": "https://p.scdn.co/mp3-preview/e6291c777c95f34efb5efad34063a19e721d119c?cid=4bb4bbafa39540db902e05b2e0d60b6a", "track_number": 3, "type": "track", "uri": "spotify:track:2dcskJYRu9mMVPpAGJl3Er"}], "limit": 5, "next": "https://api.spotify.com/v1/search?query=Anytime&type=track&offset=5&limit=5", "offset": 0, "previous": null, "total": 7924}}